// dist = 100000;
dist = 518000;
cl1 = 6000/dist;
cl2 = 6000/dist;
cl3 = 100000000/dist;
xmin = 0/dist;
xmax = 6600/dist;
xd = xmax-xmin;
ymin = -12050/dist;
ymax = 350/dist;
yd = ymax-ymin;
zmin = 0/dist;
zmax = 6210/dist;
zd = zmax-zmin;
wallhight = 3900/dist;
zwall = wallhight - zmin;
zmin = zmin-zwall;
Point(1) = {xd/2, ymax, zmax, cl1};
Point(2) = {xmax, ymax, zwall, cl1};
Point(3) = {xmax, ymax, zmin, cl1};
Point(4) = {xmin, ymax, zmin, cl1};
Point(5) = {xmin, ymax, zwall, cl1};
Point(6) = {xd/2, ymin, zmax, cl1};
Point(7) = {xmax, ymin, zwall, cl1};
Point(8) = {xmax, ymin, zmin, cl1};
Point(9) = {xmin, ymin, zmin, cl1};
Point(10) = {xmin, ymin, zwall, cl1};
Point(11) = {xmin - xd, ymin-yd, zmin, cl2};
Point(12) = {xmin - xd, ymin-yd, zmax+zd, cl2};
Point(13) = {xmin - xd, ymax+yd, zmin, cl2};
Point(14) = {xmin - xd, ymax+yd, zmax+zd, cl2};
Point(15) = {xmax + xd, ymin-yd, zmin, cl2};
Point(16) = {xmax + xd, ymin-yd, zmax+zd, cl2};
Point(17) = {xmax + xd, ymax+yd, zmin, cl2};
Point(18) = {xmax + xd, ymax+yd, zmax+zd, cl2};
Point(20) = {xmin+xd/2, ymin+yd/2, zmin, cl3};
Line(1) = {10, 9};
Line(2) = {9, 8};
Line(3) = {8, 7};
Line(4) = {7, 6};
Line(5) = {6, 10};
Line(6) = {4, 3};
Line(7) = {3, 2};
Line(8) = {2, 1};
Line(9) = {1, 5};
Line(10) = {5, 4};
Line(11) = {4, 9};
Line(12) = {8, 3};
Line(13) = {2, 7};
Line(14) = {6, 1};
Line(15) = {5, 10};
Line(16) = {11, 15};
Line(17) = {15, 16};
Line(18) = {16, 18};
Line(19) = {18, 14};
Line(20) = {14, 12};
Line(21) = {12, 11};
Line(22) = {12, 16};
Line(23) = {11, 13};
Line(24) = {13, 17};
Line(25) = {17, 18};
Line(26) = {17, 15};
Line(27) = {14, 13};
Line(28) = {13, 4};
Line(29) = {9, 11};
Line(30) = {8, 15};
Line(31) = {3, 17};
Line Loop(32) = {15, 1, -11, -10};
Plane Surface(33) = {32};
Line Loop(34) = {5, -15, -9, -14};
Plane Surface(35) = {34};
Line Loop(36) = {5, 1, 2, 3, 4};
Plane Surface(37) = {36};
Line Loop(38) = {14, -8, 13, 4};
Plane Surface(39) = {38};
Line Loop(40) = {3, -13, -7, -12};
Plane Surface(41) = {40};
Line Loop(42) = {6, 7, 8, 9, 10};
Plane Surface(43) = {42};
Line Loop(44) = {2, 12, -6, 11};
Plane Surface(45) = {44};
Line Loop(46) = {29, 23, 28, 11};
Plane Surface(47) = {46};
Line Loop(48) = {29, 16, -30, -2};
Plane Surface(49) = {48};
Line Loop(50) = {26, -30, 12, 31};
Plane Surface(51) = {50};
Line Loop(52) = {24, -31, -6, -28};
Plane Surface(53) = {52};
Line Loop(54) = {25, 19, 27, 24};
Plane Surface(55) = {54};
Line Loop(56) = {25, -18, -17, -26};
Plane Surface(57) = {56};
Line Loop(58) = {17, -22, 21, 16};
Plane Surface(59) = {58};
Line Loop(60) = {20, 21, 23, -27};
Plane Surface(61) = {60};
Line Loop(62) = {19, 20, 22, 18};
Plane Surface(63) = {62};
Surface Loop(64) = {35, 37, 33, 43, 41, 39, 45};
Volume(65) = {64};
Surface Loop(66) = {49, 47, 61, 63, 55, 57, 59, 51, 53, 37, 35, 33, 43, 41, 39};
Volume(67) = {66};
Point{20} In Surface{45}; 
Physical Surface(1) = {35, 39, 37, 41, 43, 33, 45};
Physical Surface(2) = {63, 57, 59, 61, 55, 53, 51, 49, 47};
Physical Volume(1) = {65};
Physical Volume(2) = {67};
Coherence;
Coherence;
Coherence;
Coherence;
Coherence;
