// dist = 100000;
dist = 518000;
cl1 = 100;
xmin = 0/dist;
xmax = 6600/dist;
xd = xmax-xmin;
ymin = -12050/dist;
ymax = 350/dist;
yd = ymax-ymin;
zmin = 0/dist;
zmax = 6210/dist;
zd = zmax-zmin;
wallhight = 3900/dist;
zwall = wallhight - zmin;
zmin = zmin-zwall;
Point(1) = {xd/2, ymax, zmax, cl1};
Point(2) = {xmax, ymax, zwall, cl1};
Point(3) = {xmax, ymax, zmin, cl1};
Point(4) = {xmin, ymax, zmin, cl1};
Point(5) = {xmin, ymax, zwall, cl1};
Point(6) = {xd/2, ymin, zmax, cl1};
Point(7) = {xmax, ymin, zwall, cl1};
Point(8) = {xmax, ymin, zmin, cl1};
Point(9) = {xmin, ymin, zmin, cl1};
Point(10) = {xmin, ymin, zwall, cl1};
Line(1) = {10, 9};
Line(2) = {9, 8};
Line(3) = {8, 7};
Line(4) = {7, 6};
Line(5) = {6, 10};
Line(6) = {4, 3};
Line(7) = {3, 2};
Line(8) = {2, 1};
Line(9) = {1, 5};
Line(10) = {5, 4};
Line(11) = {4, 9};
Line(12) = {8, 3};
Line(13) = {2, 7};
Line(14) = {6, 1};
Line(15) = {5, 10};
Line Loop(32) = {15, 1, -11, -10};
Plane Surface(33) = {32};
Line Loop(34) = {5, -15, -9, -14};
Plane Surface(35) = {34};
Line Loop(36) = {5, 1, 2, 3, 4};
Plane Surface(37) = {36};
Line Loop(38) = {14, -8, 13, 4};
Plane Surface(39) = {38};
Line Loop(40) = {3, -13, -7, -12};
Plane Surface(41) = {40};
Line Loop(42) = {6, 7, 8, 9, 10};
Plane Surface(43) = {42};
Line Loop(44) = {2, 12, -6, 11};
Plane Surface(45) = {44};
Surface Loop(64) = {35, 37, 33, 43, 41, 39, 45};
Volume(65) = {64};
Physical Surface(1) = {35, 39, 37, 41, 43, 33, 45};
Physical Volume(1) = {65};
